module gitlab.com/humanlytyped/transportest

go 1.21.0

require github.com/stretchr/testify v1.8.4

require (
	github.com/davecgh/go-spew v1.1.1 // indirect
	github.com/pmezard/go-difflib v1.0.0 // indirect
	golang.org/x/sync v0.3.0
	gopkg.in/yaml.v3 v3.0.1 // indirect
)
